{
  "title": "Нормировать",
  "help": "Берет строки массива как 6ки координат векторов и нормирует их",
  "icon": "нормир",
  "extraFeel" : "obj && obj.count2 == 6 ? 1 : 0",
  "chain": [
    {
      "ability": "preobrazovat",
      "input": "/add-f/create-robot/paint-f/array2d-to-points/triangulate-to-z/trimesh2normals#2/positions-as-array2d#2/Array2dRobot",
      "nameinchain": "/add-f/create-robot/paint-f/array2d-to-points/triangulate-to-z/trimesh2normals#2/positions-as-array2d#2/arr-vec-normirovat/preobrazovat",
      "initParams": {
        "code": "function convert(arr) {\n      var res = [];\n      // ожидаем что в массиве идут 6ки чисел\n      for (var i=0; i<arr.length; i++) {\n          var x=arr[i][0];\n          var y=arr[i][1];\n          var z=arr[i][2];\n          var x2=arr[i][3];\n          var y2=arr[i][4];\n          var z2=arr[i][5];\n          \n          var len = (x2-x)*(x2-x) + (y2-y)*(y2-y) + (z2-z)*(z2-z);\n          len = Math.sqrt( len );\n          if (len < 0.00001) continue;\n        \n          res.push( [x,y,z, x+(x2-x)/len, y+(y2-y)/len, z+(z2-z)/len] );\n      }\n      return res;\n}"
      }
    },
    {
      "ability": "array2d-to-lines",
      "input": "/add-f/create-robot/paint-f/array2d-to-points/triangulate-to-z/trimesh2normals#2/positions-as-array2d#2/arr-vec-normirovat/preobrazovat/Array2dRobot",
      "nameinchain": "/add-f/create-robot/paint-f/array2d-to-points/triangulate-to-z/trimesh2normals#2/positions-as-array2d#2/arr-vec-normirovat/preobrazovat/array2d-to-lines"
    },
    {
      "ability": "manage-object-color",
      "input": "/add-f/create-robot/paint-f/array2d-to-points/triangulate-to-z/trimesh2normals#2/positions-as-array2d#2/arr-vec-normirovat/preobrazovat/array2d-to-lines/Lines",
      "nameinchain": "/add-f/create-robot/paint-f/array2d-to-points/triangulate-to-z/trimesh2normals#2/positions-as-array2d#2/arr-vec-normirovat/preobrazovat/array2d-to-lines/manage-object-color",
      "initParams": {
        "cvet": "0.67 1 0.24"
      }
    }
  ]
}